Module 1: Tabular Data
…
Task: Construct a query to find the top 5 sectors in the US by CO2 emissions in 2022. Remember to check the column names in exio to find the appropriate emissions flow.

The first thing I need to do is look at what unique stressors are in the f impacts matrix. This is important to me because I want to know if there are multiple stressors measured for CO2. For example, combustion, vs cement manufacturing.

distinct_units <- exio %>%
  filter(matrix == "F_impacts") %>%
  distinct(stressor) %>%
  collect()
print(distinct_units, n = 50) 

# A tibble: 124 × 1
   stressor                                                                     
   <chr>                                                                        
 1 "Carbon dioxide (CO2) IPCC categories 1 to 4 and 6 to 7 (excl land use, land…
 2 "Carbon dioxide (CO2) CO2EQ IPCC categories 1 to 4 and 6 to 7 (excl land use…
 3 "Carbon dioxide (CO2) Fuel combustion and cement"                            
 4 "Damages to human health caused by climate change (I.I) | ECOINDICATOR 99 (I…
 5 "Freshwater aquatic ecotoxicity (FAETP20) | Problem oriented approach: non b…
 6 "Marine sedimental ecotoxicity (MSETP20) | Problem oriented approach: non ba…
 7 "Human toxicity (USEtox) | USEtox2008 | CTUh (Rosenbaum et al., 2008)"       
 8 "Carcinogenic effects on humans (H.A) | ECOINDICATOR 99 (H.A) | Carcinogenic…
 9 "Domestic Extraction Used - Forestry and Timber"                             
10 "Unused Domestic Extraction â\u0080\u0093 Fisheries"                         
11 "photochemical oxidation (low NOx) | Problem oriented approach: non baseline…
12 "photochemical oxidation (MIR; very high NOx) | Problem oriented approach: n…
13 "photochemical oxidation (MOIR; high NOx) | Problem oriented approach: non b…
14 "Nitrogen"                                                                   
15 "Human toxicity midpoint, non-cancer effects | ILCD recommended CF | Compara…
16 "Particulate matter/Respiratory inorganics midpoint | ILCD recommended CF | …
17 "Photochemical ozone formation midpoint, human health | ILCD recommended CF …
18 "Water Consumption Green - Agriculture"                                      
19 "human toxicity (HTP500) | Problem oriented approach: non baseline (CML, 199…
20 "Methane (CH4) CO2EQ IPCC categories 1 to 4 and 6 to 7 (excl land use, land …
21 "GHG emissions (GWP100min) | Problem oriented approach: non baseline (CML, 1…
22 "Damage to Ecosystem Quality caused by the combined effect of acidification …
23 "Freshwater aquatic ecotoxicity (FAETP inf) | Problem oriented approach: bas…
24 "Freshwater sedimental ecotoxicity (FSETP inf) | Problem oriented approach: …
25 "human toxicity (HTP20) | Problem oriented approach: non baseline (CML, 1999…
26 "GHG emissions (GWP100) | Problem oriented approach: baseline (CML, 2001) | …
27 "Damage to Ecosystem Quality caused by ecotoxic emissions (H.A) | ECOINDICAT…
28 "Unused Domestic Extraction - Forestry and Timber"                           
29 "Climate change endpoint, human health | ILCD recommended CF | Disability Ad…
30 "SOx"                                                                        
31 "Water Consumption Blue - Livestock"                                         
32 "Marine sedimental ecotoxicity (MSETP100) | Problem oriented approach: non b…
33 "Nitrous Oxide (N2O) IPCC categories 1 to 4 and 6 to 7 (excl land use, land …
34 "Damage to Ecosystem Quality caused by the combined effect of acidification …
35 "Water Consumption Blue - Total"                                             
36 "Water Withdrawal Blue - Electricity"                                        
37 "Respiratory effects on humans caused by inorganic substances (H.A) | ECOIND…
38 "Domestic Extraction Used - Iron Ore"                                        
39 "eutrophication (fate not incl.) | Problem oriented approach: baseline (CML,…
40 "eutrophication (incl. fate, average Europe total, A&B) | Problem oriented a…
41 "Marine aquatic ecotoxicity (MAETP500) | Problem oriented approach: non base…
42 "Marine sedimental ecotoxicity (MSETP500) | Problem oriented approach: non b…
43 "Phosphorous"                                                                
44 "PM10"                                                                       
45 "Domestic Extraction Used - Crop and Crop Residue"                           
46 "Acidification endpoint | ILCD recommended CF | Change in potentially not oc…
47 "Eutrophication terrestrial midpoint | ILCD recommended CF | Accumulated Exc…
48 "Human toxicity endpoint, cancer effects | ILCD recommended CF | Disability …
49 "Water Consumption Blue - Agriculture"                                       
50 "human toxicity (HTP100) | Problem oriented approach: non baseline (CML, 199…
# ℹ 74 more rows

Now I know that there are in fact multiple ways this matrix measures CO2. Before I get into that, I want to know what the total emissions are for the listed parameters. This includes methane and others.

exio |>
  filter(matrix == "F_impacts", year == 2022, region == "US") |>
  group_by(sector) |>
  summarise(total_emissions = sum(value, na.rm = TRUE)) |>
  arrange(desc(total_emissions)) |>
   collect() |>
  print(n=5)

# A tibble: 305 × 2
  sector            total_emissions
  <chr>                       <dbl>
1 Cattle farming            2.08e15
2 Cattle                    2.04e15
3 Raw milk                  2.02e15
4 Meat animals nec          1.54e15
5 Cereal grains nec         1.06e15
# ℹ 300 more rows
…
Find out the top producing region

look_at_sector <- exio |> 
    dplyr::filter(matrix == "F_impacts", year == "2022") |>
    group_by(region) |>
    summarise(total_emissions = sum(value, na.rm = TRUE)) |>
    arrange(desc(total_emissions)) |>
    collect() |>
    print(n = 5)

# A tibble: 49 × 2
  region total_emissions
  <chr>            <dbl>
1 WA             4.95e16
2 CN             4.48e16
3 WF             1.52e16
4 US             1.48e16
5 IN             1.41e16
# ℹ 44 more rows
…
